{
    "items": [
        {
            "external_urls": {
                "spotify": "https://open.spotify.com/artist/3pc0bOVB5whxmD50W79wwO"
            },
            "followers": {
                "href": null,
                "total": 4056482
            },
            "genres": [],
            "href": "https://api.spotify.com/v1/artists/3pc0bOVB5whxmD50W79wwO",
            "id": "3pc0bOVB5whxmD50W79wwO",
            "images": [
                {
                    "height": 640,
                    "url": "https://i.scdn.co/image/ab6761610000e5ebe6f96cf550aeaf3a51d6a0bb",
                    "width": 640
                },
                {
                    "height": 320,
                    "url": "https://i.scdn.co/image/ab67616100005174e6f96cf550aeaf3a51d6a0bb",
                    "width": 320
                },
                {
                    "height": 160,
                    "url": "https://i.scdn.co/image/ab6761610000f178e6f96cf550aeaf3a51d6a0bb",
                    "width": 160
                }
            ],
            "name": "keshi",
            "popularity": 77,
            "type": "artist",
            "uri": "spotify:artist:3pc0bOVB5whxmD50W79wwO"
        },
        {
            "external_urls": {
                "spotify": "https://open.spotify.com/artist/2NqUNNVaealnNxAUcSX9Xq"
            },
            "followers": {
                "href": null,
                "total": 36509
            },
            "genres": [],
            "href": "https://api.spotify.com/v1/artists/2NqUNNVaealnNxAUcSX9Xq",
            "id": "2NqUNNVaealnNxAUcSX9Xq",
            "images": [
                {
                    "height": 640,
                    "url": "https://i.scdn.co/image/ab6761610000e5ebf233a4ebe009885f3d12b3e9",
                    "width": 640
                },
                {
                    "height": 320,
                    "url": "https://i.scdn.co/image/ab67616100005174f233a4ebe009885f3d12b3e9",
                    "width": 320
                },
                {
                    "height": 160,
                    "url": "https://i.scdn.co/image/ab6761610000f178f233a4ebe009885f3d12b3e9",
                    "width": 160
                }
            ],
            "name": "yedira",
            "popularity": 44,
            "type": "artist",
            "uri": "spotify:artist:2NqUNNVaealnNxAUcSX9Xq"
        },
        {
            "external_urls": {
                "spotify": "https://open.spotify.com/artist/3wrFoI9EVjWg6m8xXeWr5t"
            },
            "followers": {
                "href": null,
                "total": 423320
            },
            "genres": [],
            "href": "https://api.spotify.com/v1/artists/3wrFoI9EVjWg6m8xXeWr5t",
            "id": "3wrFoI9EVjWg6m8xXeWr5t",
            "images": [
                {
                    "height": 640,
                    "url": "https://i.scdn.co/image/ab6761610000e5ebf777c8d6f705fa1e32f75b86",
                    "width": 640
                },
                {
                    "height": 320,
                    "url": "https://i.scdn.co/image/ab67616100005174f777c8d6f705fa1e32f75b86",
                    "width": 320
                },
                {
                    "height": 160,
                    "url": "https://i.scdn.co/image/ab6761610000f178f777c8d6f705fa1e32f75b86",
                    "width": 160
                }
            ],
            "name": "VALORANT",
            "popularity": 64,
            "type": "artist",
            "uri": "spotify:artist:3wrFoI9EVjWg6m8xXeWr5t"
        },
        {
            "external_urls": {
                "spotify": "https://open.spotify.com/artist/6trEYfLSuAd9CS8bCy4sOH"
            },
            "followers": {
                "href": null,
                "total": 148921
            },
            "genres": [
                "vietnamese lo-fi",
                "emo rap"
            ],
            "href": "https://api.spotify.com/v1/artists/6trEYfLSuAd9CS8bCy4sOH",
            "id": "6trEYfLSuAd9CS8bCy4sOH",
            "images": [
                {
                    "height": 640,
                    "url": "https://i.scdn.co/image/ab6761610000e5eb0b5e616d21ff192c072a1a84",
                    "width": 640
                },
                {
                    "height": 320,
                    "url": "https://i.scdn.co/image/ab676161000051740b5e616d21ff192c072a1a84",
                    "width": 320
                },
                {
                    "height": 160,
                    "url": "https://i.scdn.co/image/ab6761610000f1780b5e616d21ff192c072a1a84",
                    "width": 160
                }
            ],
            "name": "demxntia",
            "popularity": 52,
            "type": "artist",
            "uri": "spotify:artist:6trEYfLSuAd9CS8bCy4sOH"
        },
        {
            "external_urls": {
                "spotify": "https://open.spotify.com/artist/51KbY36mrjHRQwvSbel74l"
            },
            "followers": {
                "href": null,
                "total": 149631
            },
            "genres": [],
            "href": "https://api.spotify.com/v1/artists/51KbY36mrjHRQwvSbel74l",
            "id": "51KbY36mrjHRQwvSbel74l",
            "images": [
                {
                    "height": 640,
                    "url": "https://i.scdn.co/image/ab6761610000e5eba265a84803292bf6f1a6da14",
                    "width": 640
                },
                {
                    "height": 320,
                    "url": "https://i.scdn.co/image/ab67616100005174a265a84803292bf6f1a6da14",
                    "width": 320
                },
                {
                    "height": 160,
                    "url": "https://i.scdn.co/image/ab6761610000f178a265a84803292bf6f1a6da14",
                    "width": 160
                }
            ],
            "name": "Jesse Barrera",
            "popularity": 61,
            "type": "artist",
            "uri": "spotify:artist:51KbY36mrjHRQwvSbel74l"
        },
        {
            "external_urls": {
                "spotify": "https://open.spotify.com/artist/6eUKZXaKkcviH0Ku9w2n3V"
            },
            "followers": {
                "href": null,
                "total": 120465517
            },
            "genres": [
                "soft pop"
            ],
            "href": "https://api.spotify.com/v1/artists/6eUKZXaKkcviH0Ku9w2n3V",
            "id": "6eUKZXaKkcviH0Ku9w2n3V",
            "images": [
                {
                    "height": 640,
                    "url": "https://i.scdn.co/image/ab6761610000e5eb399444ed4eace08b549d1161",
                    "width": 640
                },
                {
                    "height": 320,
                    "url": "https://i.scdn.co/image/ab67616100005174399444ed4eace08b549d1161",
                    "width": 320
                },
                {
                    "height": 160,
                    "url": "https://i.scdn.co/image/ab6761610000f178399444ed4eace08b549d1161",
                    "width": 160
                }
            ],
            "name": "Ed Sheeran",
            "popularity": 90,
            "type": "artist",
            "uri": "spotify:artist:6eUKZXaKkcviH0Ku9w2n3V"
        },
        {
            "external_urls": {
                "spotify": "https://open.spotify.com/artist/7zrkFhYAp6dBxsydmJkouN"
            },
            "followers": {
                "href": null,
                "total": 102870
            },
            "genres": [],
            "href": "https://api.spotify.com/v1/artists/7zrkFhYAp6dBxsydmJkouN",
            "id": "7zrkFhYAp6dBxsydmJkouN",
            "images": [
                {
                    "height": 640,
                    "url": "https://i.scdn.co/image/ab6761610000e5ebd14ea6d5afb65a6903ee0287",
                    "width": 640
                },
                {
                    "height": 320,
                    "url": "https://i.scdn.co/image/ab67616100005174d14ea6d5afb65a6903ee0287",
                    "width": 320
                },
                {
                    "height": 160,
                    "url": "https://i.scdn.co/image/ab6761610000f178d14ea6d5afb65a6903ee0287",
                    "width": 160
                }
            ],
            "name": "lullaboy",
            "popularity": 51,
            "type": "artist",
            "uri": "spotify:artist:7zrkFhYAp6dBxsydmJkouN"
        },
        {
            "external_urls": {
                "spotify": "https://open.spotify.com/artist/1dPSMH55yhvjYIwqCP4iDj"
            },
            "followers": {
                "href": null,
                "total": 521865
            },
            "genres": [],
            "href": "https://api.spotify.com/v1/artists/1dPSMH55yhvjYIwqCP4iDj",
            "id": "1dPSMH55yhvjYIwqCP4iDj",
            "images": [
                {
                    "height": 640,
                    "url": "https://i.scdn.co/image/ab6761610000e5eb4342103a5faae2cbac0f5bae",
                    "width": 640
                },
                {
                    "height": 320,
                    "url": "https://i.scdn.co/image/ab676161000051744342103a5faae2cbac0f5bae",
                    "width": 320
                },
                {
                    "height": 160,
                    "url": "https://i.scdn.co/image/ab6761610000f1784342103a5faae2cbac0f5bae",
                    "width": 160
                }
            ],
            "name": "Luke Chiang",
            "popularity": 64,
            "type": "artist",
            "uri": "spotify:artist:1dPSMH55yhvjYIwqCP4iDj"
        },
        {
            "external_urls": {
                "spotify": "https://open.spotify.com/artist/3MZsBdqDrRTJihTHQrO6Dq"
            },
            "followers": {
                "href": null,
                "total": 10230017
            },
            "genres": [],
            "href": "https://api.spotify.com/v1/artists/3MZsBdqDrRTJihTHQrO6Dq",
            "id": "3MZsBdqDrRTJihTHQrO6Dq",
            "images": [
                {
                    "height": 640,
                    "url": "https://i.scdn.co/image/ab6761610000e5eb4111c95b5f430c3265c7304b",
                    "width": 640
                },
                {
                    "height": 320,
                    "url": "https://i.scdn.co/image/ab676161000051744111c95b5f430c3265c7304b",
                    "width": 320
                },
                {
                    "height": 160,
                    "url": "https://i.scdn.co/image/ab6761610000f1784111c95b5f430c3265c7304b",
                    "width": 160
                }
            ],
            "name": "Joji",
            "popularity": 79,
            "type": "artist",
            "uri": "spotify:artist:3MZsBdqDrRTJihTHQrO6Dq"
        },
        {
            "external_urls": {
                "spotify": "https://open.spotify.com/artist/69cjjIQEN8M6heOBT2SqZE"
            },
            "followers": {
                "href": null,
                "total": 87926
            },
            "genres": [
                "lo-fi beats",
                "lo-fi",
                "jazz beats"
            ],
            "href": "https://api.spotify.com/v1/artists/69cjjIQEN8M6heOBT2SqZE",
            "id": "69cjjIQEN8M6heOBT2SqZE",
            "images": [
                {
                    "height": 640,
                    "url": "https://i.scdn.co/image/ab6761610000e5eb9ffdb939c47a56017bc14371",
                    "width": 640
                },
                {
                    "height": 320,
                    "url": "https://i.scdn.co/image/ab676161000051749ffdb939c47a56017bc14371",
                    "width": 320
                },
                {
                    "height": 160,
                    "url": "https://i.scdn.co/image/ab6761610000f1789ffdb939c47a56017bc14371",
                    "width": 160
                }
            ],
            "name": "Wun Two",
            "popularity": 50,
            "type": "artist",
            "uri": "spotify:artist:69cjjIQEN8M6heOBT2SqZE"
        },
        {
            "external_urls": {
                "spotify": "https://open.spotify.com/artist/330A2O2MYF4bWFjwM5PJ4z"
            },
            "followers": {
                "href": null,
                "total": 58723
            },
            "genres": [],
            "href": "https://api.spotify.com/v1/artists/330A2O2MYF4bWFjwM5PJ4z",
            "id": "330A2O2MYF4bWFjwM5PJ4z",
            "images": [
                {
                    "height": 640,
                    "url": "https://i.scdn.co/image/ab6761610000e5eb96c4ede2ffebd61959ebadfe",
                    "width": 640
                },
                {
                    "height": 320,
                    "url": "https://i.scdn.co/image/ab6761610000517496c4ede2ffebd61959ebadfe",
                    "width": 320
                },
                {
                    "height": 160,
                    "url": "https://i.scdn.co/image/ab6761610000f17896c4ede2ffebd61959ebadfe",
                    "width": 160
                }
            ],
            "name": "Rangga Jones",
            "popularity": 52,
            "type": "artist",
            "uri": "spotify:artist:330A2O2MYF4bWFjwM5PJ4z"
        },
        {
            "external_urls": {
                "spotify": "https://open.spotify.com/artist/57g2v7gJZepcwsuwssIfZs"
            },
            "followers": {
                "href": null,
                "total": 2486229
            },
            "genres": [
                "v-pop",
                "vietnam indie",
                "vietnamese lo-fi"
            ],
            "href": "https://api.spotify.com/v1/artists/57g2v7gJZepcwsuwssIfZs",
            "id": "57g2v7gJZepcwsuwssIfZs",
            "images": [
                {
                    "height": 640,
                    "url": "https://i.scdn.co/image/ab6761610000e5eb2d7150aa7e90e9a85610ab3d",
                    "width": 640
                },
                {
                    "height": 320,
                    "url": "https://i.scdn.co/image/ab676161000051742d7150aa7e90e9a85610ab3d",
                    "width": 320
                },
                {
                    "height": 160,
                    "url": "https://i.scdn.co/image/ab6761610000f1782d7150aa7e90e9a85610ab3d",
                    "width": 160
                }
            ],
            "name": "V\u0169.",
            "popularity": 63,
            "type": "artist",
            "uri": "spotify:artist:57g2v7gJZepcwsuwssIfZs"
        },
        {
            "external_urls": {
                "spotify": "https://open.spotify.com/artist/4QQgXkCYTt3BlENzhyNETg"
            },
            "followers": {
                "href": null,
                "total": 4828406
            },
            "genres": [
                "disco"
            ],
            "href": "https://api.spotify.com/v1/artists/4QQgXkCYTt3BlENzhyNETg",
            "id": "4QQgXkCYTt3BlENzhyNETg",
            "images": [
                {
                    "height": 640,
                    "url": "https://i.scdn.co/image/ab6761610000e5eb9722e16a886767adf1178f92",
                    "width": 640
                },
                {
                    "height": 320,
                    "url": "https://i.scdn.co/image/ab676161000051749722e16a886767adf1178f92",
                    "width": 320
                },
                {
                    "height": 160,
                    "url": "https://i.scdn.co/image/ab6761610000f1789722e16a886767adf1178f92",
                    "width": 160
                }
            ],
            "name": "Earth, Wind & Fire",
            "popularity": 76,
            "type": "artist",
            "uri": "spotify:artist:4QQgXkCYTt3BlENzhyNETg"
        },
        {
            "external_urls": {
                "spotify": "https://open.spotify.com/artist/4bNOdxc26omK0xR7FPucJn"
            },
            "followers": {
                "href": null,
                "total": 61865
            },
            "genres": [],
            "href": "https://api.spotify.com/v1/artists/4bNOdxc26omK0xR7FPucJn",
            "id": "4bNOdxc26omK0xR7FPucJn",
            "images": [
                {
                    "height": 640,
                    "url": "https://i.scdn.co/image/ab6761610000e5ebb81f43de42af84758b54744b",
                    "width": 640
                },
                {
                    "height": 320,
                    "url": "https://i.scdn.co/image/ab67616100005174b81f43de42af84758b54744b",
                    "width": 320
                },
                {
                    "height": 160,
                    "url": "https://i.scdn.co/image/ab6761610000f178b81f43de42af84758b54744b",
                    "width": 160
                }
            ],
            "name": "Albert Posis",
            "popularity": 55,
            "type": "artist",
            "uri": "spotify:artist:4bNOdxc26omK0xR7FPucJn"
        },
        {
            "external_urls": {
                "spotify": "https://open.spotify.com/artist/3R80OE4RViOWbnuvqh0j8a"
            },
            "followers": {
                "href": null,
                "total": 405024
            },
            "genres": [],
            "href": "https://api.spotify.com/v1/artists/3R80OE4RViOWbnuvqh0j8a",
            "id": "3R80OE4RViOWbnuvqh0j8a",
            "images": [
                {
                    "height": 640,
                    "url": "https://i.scdn.co/image/ab6761610000e5eb9b4429ad3af2f7dfb0bcfc70",
                    "width": 640
                },
                {
                    "height": 320,
                    "url": "https://i.scdn.co/image/ab676161000051749b4429ad3af2f7dfb0bcfc70",
                    "width": 320
                },
                {
                    "height": 160,
                    "url": "https://i.scdn.co/image/ab6761610000f1789b4429ad3af2f7dfb0bcfc70",
                    "width": 160
                }
            ],
            "name": "th\u1ee7y",
            "popularity": 62,
            "type": "artist",
            "uri": "spotify:artist:3R80OE4RViOWbnuvqh0j8a"
        },
        {
            "external_urls": {
                "spotify": "https://open.spotify.com/artist/2V9zpugQCHRiu2lPjsUM6d"
            },
            "followers": {
                "href": null,
                "total": 56577
            },
            "genres": [
                "lo-fi",
                "lo-fi beats"
            ],
            "href": "https://api.spotify.com/v1/artists/2V9zpugQCHRiu2lPjsUM6d",
            "id": "2V9zpugQCHRiu2lPjsUM6d",
            "images": [
                {
                    "height": 640,
                    "url": "https://i.scdn.co/image/ab6761610000e5eb2da25c359a7084055612a309",
                    "width": 640
                },
                {
                    "height": 320,
                    "url": "https://i.scdn.co/image/ab676161000051742da25c359a7084055612a309",
                    "width": 320
                },
                {
                    "height": 160,
                    "url": "https://i.scdn.co/image/ab6761610000f1782da25c359a7084055612a309",
                    "width": 160
                }
            ],
            "name": "mt. fujitive",
            "popularity": 42,
            "type": "artist",
            "uri": "spotify:artist:2V9zpugQCHRiu2lPjsUM6d"
        },
        {
            "external_urls": {
                "spotify": "https://open.spotify.com/artist/0VpMOC5IZU06u29fWjv3qJ"
            },
            "followers": {
                "href": null,
                "total": 106674
            },
            "genres": [],
            "href": "https://api.spotify.com/v1/artists/0VpMOC5IZU06u29fWjv3qJ",
            "id": "0VpMOC5IZU06u29fWjv3qJ",
            "images": [
                {
                    "height": 640,
                    "url": "https://i.scdn.co/image/ab6761610000e5ebb044a552ffb724baab8293b2",
                    "width": 640
                },
                {
                    "height": 320,
                    "url": "https://i.scdn.co/image/ab67616100005174b044a552ffb724baab8293b2",
                    "width": 320
                },
                {
                    "height": 160,
                    "url": "https://i.scdn.co/image/ab6761610000f178b044a552ffb724baab8293b2",
                    "width": 160
                }
            ],
            "name": "J.Tajor",
            "popularity": 59,
            "type": "artist",
            "uri": "spotify:artist:0VpMOC5IZU06u29fWjv3qJ"
        },
        {
            "external_urls": {
                "spotify": "https://open.spotify.com/artist/0mvxieGhMmy9gnbYGYtnI6"
            },
            "followers": {
                "href": null,
                "total": 14224
            },
            "genres": [
                "lo-fi beats",
                "lo-fi",
                "jazz beats",
                "jazz rap"
            ],
            "href": "https://api.spotify.com/v1/artists/0mvxieGhMmy9gnbYGYtnI6",
            "id": "0mvxieGhMmy9gnbYGYtnI6",
            "images": [
                {
                    "height": 640,
                    "url": "https://i.scdn.co/image/ab6761610000e5eb5a68da4c9ca6afbce495a182",
                    "width": 640
                },
                {
                    "height": 320,
                    "url": "https://i.scdn.co/image/ab676161000051745a68da4c9ca6afbce495a182",
                    "width": 320
                },
                {
                    "height": 160,
                    "url": "https://i.scdn.co/image/ab6761610000f1785a68da4c9ca6afbce495a182",
                    "width": 160
                }
            ],
            "name": "baaskaT",
            "popularity": 33,
            "type": "artist",
            "uri": "spotify:artist:0mvxieGhMmy9gnbYGYtnI6"
        },
        {
            "external_urls": {
                "spotify": "https://open.spotify.com/artist/6dWLfq2aQPUQfQTMtDuLVx"
            },
            "followers": {
                "href": null,
                "total": 9049
            },
            "genres": [
                "lo-fi beats"
            ],
            "href": "https://api.spotify.com/v1/artists/6dWLfq2aQPUQfQTMtDuLVx",
            "id": "6dWLfq2aQPUQfQTMtDuLVx",
            "images": [
                {
                    "height": 640,
                    "url": "https://i.scdn.co/image/ab6761610000e5eb2b49eaf08f23ad859efed4ee",
                    "width": 640
                },
                {
                    "height": 320,
                    "url": "https://i.scdn.co/image/ab676161000051742b49eaf08f23ad859efed4ee",
                    "width": 320
                },
                {
                    "height": 160,
                    "url": "https://i.scdn.co/image/ab6761610000f1782b49eaf08f23ad859efed4ee",
                    "width": 160
                }
            ],
            "name": "dude26",
            "popularity": 23,
            "type": "artist",
            "uri": "spotify:artist:6dWLfq2aQPUQfQTMtDuLVx"
        },
        {
            "external_urls": {
                "spotify": "https://open.spotify.com/artist/7zkwepHPyac6tCYl0fL0co"
            },
            "followers": {
                "href": null,
                "total": 319044
            },
            "genres": [],
            "href": "https://api.spotify.com/v1/artists/7zkwepHPyac6tCYl0fL0co",
            "id": "7zkwepHPyac6tCYl0fL0co",
            "images": [
                {
                    "height": 640,
                    "url": "https://i.scdn.co/image/ab6761610000e5eba59a135d52c4e95d28f3f5b9",
                    "width": 640
                },
                {
                    "height": 320,
                    "url": "https://i.scdn.co/image/ab67616100005174a59a135d52c4e95d28f3f5b9",
                    "width": 320
                },
                {
                    "height": 160,
                    "url": "https://i.scdn.co/image/ab6761610000f178a59a135d52c4e95d28f3f5b9",
                    "width": 160
                }
            ],
            "name": "ASTN",
            "popularity": 58,
            "type": "artist",
            "uri": "spotify:artist:7zkwepHPyac6tCYl0fL0co"
        }
    ],
    "total": 29,
    "limit": 20,
    "offset": 0,
    "href": "https://api.spotify.com/v1/me/top/artists?offset=0&limit=20&time_range=medium_term",
    "next": "https://api.spotify.com/v1/me/top/artists?offset=20&limit=20&time_range=medium_term",
    "previous": null
}